<svg xmlns="http://www.w3.org/2000/svg" width="222.562" height="118.073" viewBox="0 0 222.562 118.073">
    <defs>
        <style>
            .prefix__cls-1{fill:none;stroke-linecap:round;stroke-linejoin:round;stroke-miterlimit:10;stroke:#447def}.prefix__cls-2{fill:#447def;opacity:.3}
        </style>
    </defs>
    <g id="prefix__Cloud_management" data-name="Cloud management" transform="translate(-305.5 -2276.5)">
        <g id="prefix__Group_1200" data-name="Group 1200">
            <path id="prefix__Path_116" d="M36.109 146.523c-1.537-1.84-8.948-4.082-8.948-6.666V56.7a10.6 10.6 0 0 1 10.6-10.6l110.932-.119" class="prefix__cls-1" data-name="Path 116" transform="translate(318.092 2237.488)"/>
            <path id="prefix__Path_118" d="M129.846 71.361c0 13.107-.027 53.362-.027 53.362a10.457 10.457 0 0 1-2.456 6.785" class="prefix__cls-1" data-name="Path 118" transform="translate(378.314 2252.621)"/>
            <path id="prefix__Path_121" d="M181.49 84.163v43.4a10.6 10.6 0 0 1-10.6 10.6H41.644a10.6 10.6 0 0 1-10.6-10.6V60.047a10.6 10.6 0 0 1 10.6-10.6h99.017" class="prefix__cls-1" data-name="Path 121" transform="translate(320.428 2239.592)"/>
            <path id="prefix__Path_123" d="M208.588 108.842H21.358a4.8 4.8 0 0 0-4.8 4.8v.346a4.8 4.8 0 0 0 4.8 4.8h187.228a4.8 4.8 0 0 0 4.8-4.8v-.346a4.8 4.8 0 0 0-4.798-4.8z" class="prefix__cls-1" data-name="Path 123" transform="translate(311.721 2275.289)"/>
            <path id="prefix__Path_124" d="M120.937 113.815H59.854a2.407 2.407 0 0 1-2.4-2.4v-.173a2.407 2.407 0 0 1 2.4-2.4h61.083a2.407 2.407 0 0 1 2.4 2.4v.173a2.409 2.409 0 0 1-2.4 2.4z" class="prefix__cls-2" data-name="Path 124" transform="translate(336.297 2275.289)"/>
            <path id="prefix__Path_125" d="M120.937 113.815H59.854a2.407 2.407 0 0 1-2.4-2.4v-.173a2.407 2.407 0 0 1 2.4-2.4h61.083a2.407 2.407 0 0 1 2.4 2.4v.173a2.409 2.409 0 0 1-2.4 2.4z" class="prefix__cls-1" data-name="Path 125" transform="translate(336.297 2275.289)"/>
            <path id="prefix__Line_36" d="M0 0L56.035 0" class="prefix__cls-1" data-name="Line 36" transform="translate(367.984 2305.225)"/>
            <path id="prefix__Line_37" d="M0 0L64.04 0" class="prefix__cls-1" data-name="Line 37" transform="translate(367.984 2321.234)"/>
            <g id="prefix__Group_583" data-name="Group 583" transform="translate(306 2279.77)">
                <path id="prefix__Line_38" d="M0 0L0 15.549" class="prefix__cls-1" data-name="Line 38" transform="translate(7.774)"/>
                <path id="prefix__Line_39" d="M15.549 0L0 0" class="prefix__cls-1" data-name="Line 39" transform="translate(0 7.774)"/>
            </g>
            <g id="prefix__Group_584" data-name="Group 584" transform="translate(321.869 2314.402)">
                <path id="prefix__Line_40" d="M0 0L0 9.31" class="prefix__cls-1" data-name="Line 40" transform="translate(4.654)"/>
                <path id="prefix__Line_41" d="M9.308 0L0 0" class="prefix__cls-1" data-name="Line 41" transform="translate(0 4.654)"/>
            </g>
            <path id="prefix__Line_42" d="M0 0L86.454 0" class="prefix__cls-1" data-name="Line 42" transform="translate(367.984 2335.641)"/>
            <path id="prefix__Path_128" d="M156.428 102.88H44.539a3.881 3.881 0 0 1-3.87-3.87v-8.3a3.882 3.882 0 0 1 3.87-3.87h111.889a3.881 3.881 0 0 1 3.87 3.87v8.3a3.881 3.881 0 0 1-3.87 3.87z" class="prefix__cls-2" data-name="Path 128" transform="translate(326.211 2262.07)"/>
            <g id="prefix__Page-1" transform="translate(454.066 2277)">
                <g id="prefix__icon-132-cloud">
                    <path id="prefix__cloud" d="M68.01 28.049a13.614 13.614 0 0 1-5.124 26.226H16.609a13.611 13.611 0 0 1-5.41-26.1q-.032-.556-.032-1.12a19.057 19.057 0 0 1 35.642-9.383 14.982 14.982 0 0 1 21.2 10.378z" transform="translate(-3 -8)" style="fill:rgba(68,125,239,.3);fill-rule:evenodd;stroke:#447def"/>
                </g>
            </g>
        </g>
    </g>
</svg>
