<svg xmlns="http://www.w3.org/2000/svg" width="220.506" height="171.377" viewBox="0 0 220.506 171.377">
    <defs>
        <style>
            .prefix__cls-1{fill:#447def;opacity:.3}.prefix__cls-2{fill:none;stroke:#447def;stroke-linecap:round;stroke-linejoin:round;stroke-miterlimit:10}
        </style>
    </defs>
    <g id="prefix__WEb_and_Mobile" data-name="WEb and Mobile" transform="translate(-1371 -1663.5)">
        <path id="prefix__Rectangle_163" d="M0 0H33.588V8.003H0z" class="prefix__cls-1" data-name="Rectangle 163" transform="translate(1440.795 1802.354)"/>
        <path id="prefix__Path_129" d="M144.551 154.7H22.9a19.319 19.319 0 0 1-19.259-19.265V41.347A19.319 19.319 0 0 1 22.9 22.085h134a19.319 19.319 0 0 1 19.262 19.262V77.4" class="prefix__cls-2" data-name="Path 129" transform="translate(1367.859 1647.859)"/>
        <path id="prefix__Path_130" d="M141.162 123.561H19.641a10.378 10.378 0 0 1-10.348-10.347V38.346A10.38 10.38 0 0 1 19.642 28h133.747a10.378 10.378 0 0 1 10.348 10.348v34.668" class="prefix__cls-2" data-name="Path 130" transform="translate(1371.246 1651.406)"/>
        <path id="prefix__Path_131" d="M9.292 41.629v-3.283A10.38 10.38 0 0 1 19.641 28h133.747a10.378 10.378 0 0 1 10.348 10.348v3.284z" class="prefix__cls-1" data-name="Path 131" transform="translate(1371.246 1651.406)"/>
        <path id="prefix__Path_132" d="M9.292 41.629v-3.283A10.38 10.38 0 0 1 19.641 28h133.747a10.378 10.378 0 0 1 10.348 10.348v3.284z" class="prefix__cls-2" data-name="Path 132" transform="translate(1371.246 1651.406)"/>
        <circle id="prefix__Ellipse_8" cx="5.767" cy="5.767" r="5.767" class="prefix__cls-1" data-name="Ellipse 8" transform="translate(1451.994 1783.393)"/>
        <circle id="prefix__Ellipse_9" cx="5.767" cy="5.767" r="5.767" class="prefix__cls-2" data-name="Ellipse 9" transform="translate(1451.994 1783.393)"/>
        <path id="prefix__Path_133" d="M85.232 105.247s-3.046 19.688 11.946 19.688H39.557c14.99 0 11.711-19.483 11.711-19.483" class="prefix__cls-2" data-name="Path 133" transform="translate(1389.395 1697.725)"/>
        <path id="prefix__Rectangle_164" d="M0 0H57.513V21.489H0z" class="prefix__cls-2" data-name="Rectangle 164" transform="translate(1392.129 1703.283)"/>
        <g id="prefix__Group_586" data-name="Group 586" transform="translate(1459.027 1705.889)">
            <path id="prefix__Line_43" d="M0 0L47.988 0" class="prefix__cls-2" data-name="Line 43"/>
            <path id="prefix__Line_44" d="M0 0L55.986 0" class="prefix__cls-2" data-name="Line 44" transform="translate(0 9.598)"/>
            <path id="prefix__Line_45" d="M0 0L47.988 0" class="prefix__cls-2" data-name="Line 45" transform="translate(0 15.996)"/>
        </g>
        <path id="prefix__Rectangle_165" d="M0 0H28.757V28.757H0z" class="prefix__cls-1" data-name="Rectangle 165" transform="translate(1392.129 1736.625)"/>
        <path id="prefix__Rectangle_166" d="M0 0H28.757V28.757H0z" class="prefix__cls-2" data-name="Rectangle 166" transform="translate(1392.129 1736.625)"/>
        <path id="prefix__Rectangle_167" d="M0 0H28.757V28.757H0z" class="prefix__cls-2" data-name="Rectangle 167" transform="translate(1431.316 1736.625)"/>
        <path id="prefix__Rectangle_168" d="M0 0H28.757V28.757H0z" class="prefix__cls-2" data-name="Rectangle 168" transform="translate(1470.5 1736.625)"/>
        <path id="prefix__Path_134" d="M160.481 165.785H99.487a7.736 7.736 0 0 1-7.713-7.713v-93.7a7.736 7.736 0 0 1 7.713-7.713h60.994a7.736 7.736 0 0 1 7.713 7.713v93.7a7.736 7.736 0 0 1-7.713 7.713z" class="prefix__cls-2" data-name="Path 134" transform="translate(1420.703 1668.592)"/>
        <path id="prefix__Path_135" d="M155.881 145.895h-55.794a4.975 4.975 0 0 1-4.975-4.975v-75.4a4.975 4.975 0 0 1 4.975-4.975h55.794a4.975 4.975 0 0 1 4.975 4.975v75.4a4.976 4.976 0 0 1-4.975 4.975z" class="prefix__cls-2" data-name="Path 135" transform="translate(1422.703 1670.924)"/>
        <circle id="prefix__Ellipse_10" cx="3.529" cy="3.529" r="3.529" class="prefix__cls-1" data-name="Ellipse 10" transform="translate(1550.027 1821.832)"/>
        <circle id="prefix__Ellipse_11" cx="3.529" cy="3.529" r="3.529" class="prefix__cls-2" data-name="Ellipse 11" transform="translate(1550.027 1821.832)"/>
        <path id="prefix__Rectangle_169" d="M0 0H48.941V41.028H0z" class="prefix__cls-1" data-name="Rectangle 169" transform="translate(1527.168 1739.625)"/>
        <path id="prefix__Rectangle_170" d="M0 0H49.968V41.028H0z" class="prefix__cls-2" data-name="Rectangle 170" transform="translate(1526.145 1739.625)"/>
        <path id="prefix__Line_46" d="M0 0L38.39 0" class="prefix__cls-2" data-name="Line 46" transform="translate(1527.811 1792.268)"/>
        <path id="prefix__Line_47" d="M0 0L31.992 0" class="prefix__cls-2" data-name="Line 47" transform="translate(1527.811 1798.664)"/>
        <g id="prefix__Group_587" data-name="Group 587" transform="translate(1561.504 1699.418)">
            <path id="prefix__Line_48" d="M0 0L0 9.967" class="prefix__cls-2" data-name="Line 48" transform="translate(4.983)"/>
            <path id="prefix__Line_49" d="M9.967 0L0 0" class="prefix__cls-2" data-name="Line 49" transform="translate(0 4.983)"/>
        </g>
        <g id="prefix__Group_588" data-name="Group 588" transform="translate(1574.359 1664)">
            <path id="prefix__Line_50" d="M0 0L0 16.649" class="prefix__cls-2" data-name="Line 50" transform="translate(8.323)"/>
            <path id="prefix__Line_51" d="M16.647 0L0 0" class="prefix__cls-2" data-name="Line 51" transform="translate(0 8.324)"/>
        </g>
    </g>
</svg>
