<svg xmlns="http://www.w3.org/2000/svg" width="220.887" height="181.424" viewBox="0 0 220.887 181.424">
    <defs>
        <style>
            .prefix__cls-1{fill:none}.prefix__cls-1,.prefix__cls-3{stroke:#447def;stroke-linecap:round;stroke-linejoin:round;stroke-miterlimit:10}.prefix__cls-2{fill:#447def;opacity:.3}.prefix__cls-3{fill:#fff}
        </style>
    </defs>
    <g id="prefix__Game" transform="translate(-1373.613 -2885.5)">
        <path id="prefix__Path_176" d="M125.931 142.276v13.878a16.386 16.386 0 0 1-16.386 16.386H55.734a16.386 16.386 0 0 1-16.386-16.386V36.9a16.386 16.386 0 0 1 16.386-16.386h53.809A16.386 16.386 0 0 1 125.929 36.9v22.031" class="prefix__cls-1" data-name="Path 176" transform="translate(1384.566 2865.486)"/>
        <path id="prefix__Path_177" d="M39.348 37.146V36.9a16.386 16.386 0 0 1 16.386-16.386h53.809A16.386 16.386 0 0 1 125.929 36.9v.246z" class="prefix__cls-1" data-name="Path 177" transform="translate(1384.566 2865.486)"/>
        <path id="prefix__Path_178" d="M39.182 37.146V36.9a16.386 16.386 0 0 1 16.386-16.386h53.809A16.386 16.386 0 0 1 125.763 36.9v.246z" class="prefix__cls-2" data-name="Path 178" transform="translate(1384.491 2865.486)"/>
        <path id="prefix__Path_179" d="M125.931 114.015v.246a16.386 16.386 0 0 1-16.386 16.386H55.734a16.386 16.386 0 0 1-16.386-16.386v-.246z" class="prefix__cls-1" data-name="Path 179" transform="translate(1384.566 2907.379)"/>
        <path id="prefix__Path_180" d="M125.931 114.015v.246a16.386 16.386 0 0 1-16.386 16.386H55.734a16.386 16.386 0 0 1-16.386-16.386v-.246z" class="prefix__cls-2" data-name="Path 180" transform="translate(1384.566 2907.379)"/>
        <path id="prefix__Line_103" d="M0 0L15.352 0" class="prefix__cls-3" data-name="Line 103" transform="translate(1459.528 3030.602)"/>
        <path id="prefix__Line_100" d="M0 0L15.352 0" class="prefix__cls-3" data-name="Line 100" transform="translate(1459.528 2894.313)"/>
        <g id="prefix__Group_634" data-name="Group 634" transform="translate(1374.113 2929.456)">
            <path id="prefix__Line_28" d="M0 0L0 16.117" class="prefix__cls-1" data-name="Line 28" transform="translate(9.021)"/>
            <path id="prefix__Line_29" d="M18.041 0L0 0" class="prefix__cls-1" data-name="Line 29" transform="translate(0 8.058)"/>
        </g>
        <g id="prefix__Group_636" data-name="Group 636" transform="translate(1397.524 2968.972)">
            <path id="prefix__Line_30" d="M0 0L0 10.801" class="prefix__cls-1" data-name="Line 30" transform="translate(5.4)"/>
            <path id="prefix__Line_31" d="M10.801 0L0 0" class="prefix__cls-1" data-name="Line 31" transform="translate(0 5.4)"/>
        </g>
        <path id="prefix__Line_101" d="M0 0L52.13 0" class="prefix__cls-1" data-name="Line 101" transform="translate(1435.515 2920.814)"/>
        <path id="prefix__Line_102" d="M0 0L36.202 0" class="prefix__cls-1" data-name="Line 102" transform="translate(1435.515 2936.738)"/>
        <g id="prefix__Group_637" data-name="Group 637" transform="translate(1539.567 2897.499)">
            <path id="prefix__Line_34" d="M0 0L0 16.117" class="prefix__cls-1" data-name="Line 34" transform="translate(9.021)"/>
            <path id="prefix__Line_35" d="M18.041 0L0 0" class="prefix__cls-1" data-name="Line 35" transform="translate(0 8.058)"/>
        </g>
        <g id="prefix___23395" data-name="23395" transform="translate(1472.754 2924.281)" style="opacity:.96">
            <path id="prefix__Path_184" d="M86.43 61.287a41.394 41.394 0 1 1 3.417-31.556l-42.392 14.5zM64.633 29.46a7.365 7.365 0 1 0-7.3-7.365 7.331 7.331 0 0 0 7.3 7.365" data-name="Path 184" transform="translate(-8.69)" style="fill:rgba(68,125,239,.3);stroke:#447def"/>
        </g>
        <path id="prefix__Path_185" d="M6671.494-22469.609h39.968v97.457h-191.337v-63.736" data-name="Path 185" transform="translate(-5117.462 25438.576)" style="stroke-dasharray:4;stroke:#447def;fill:none"/>
    </g>
</svg>
